{
    "content": [
        {
            "checkPtSize": "00000000000000000000000000000000000000000000000",
            "classifyId": 705705705705705705705705705705705705,
            "classifyName": "stringstringstringstringstringstringstringstringstringstringstringstringstringstringstringstringstringstringstring",
            "drawingId": 111,
            "drawingName": "谁偷了奶酪谁偷了奶酪谁偷了奶酪谁偷了奶酪谁偷了奶酪谁偷了奶酪谁偷了奶酪谁偷了奶酪谁偷了奶酪谁偷了奶酪谁偷了奶酪谁偷了奶酪谁偷了奶酪谁偷了奶酪",
            "memo": "橘子郡橘子郡橘子郡橘子郡橘子郡橘子郡橘子郡橘子郡橘子郡橘子郡橘子郡橘子郡橘子郡橘子郡橘子郡橘子郡橘子郡橘子郡橘子郡橘子郡",
            "picSize": "1111111111111111111111111111",
            "ppid": 1,
            "projName": "stringstringstringstringstringstringstringstringstringstring",
            "size": "stringstringstringstringstringstringstringstringstringstringstringstringstringstringstringstringstringstring",
            "uploadTime": "2017-12-07T01:31:12.654Z",
            "uploadUser": "stringstringstringstringstringstringstringstringstringstringstringstringstringstringstring"
        },
        {
            "checkPtSize": 0,
            "classifyId": 706,
            "classifyName": "string",
            "drawingId": 2,
            "drawingName": "谁偷了奶酪",
            "memo": "string",
            "picSize": 0,
            "ppid": 0,
            "projName": "string",
            "size": 0,
            "uploadTime": "2017-12-07T01:31:12.654Z",
            "uploadUser": "string"
        },
        {
            "checkPtSize": 0,
            "classifyId": 707,
            "classifyName": "string",
            "drawingId": 3,
            "drawingName": "酱子",
            "memo": "酱子",
            "picSize": 0,
            "ppid": 0,
            "projName": "string",
            "size": 0,
            "uploadTime": "2017-12-07T01:31:12.654Z",
            "uploadUser": "string"
        },
        {
            "checkPtSize": 0,
            "classifyId": 708,
            "classifyName": "string",
            "drawingId": 4,
            "drawingName": "神偷奶爸",
            "memo": "神偷奶爸",
            "picSize": 0,
            "ppid": 0,
            "projName": "string",
            "size": 0,
            "uploadTime": "2017-12-07T01:31:12.654Z",
            "uploadUser": "string"
        },{
            "checkPtSize": 0,
            "classifyId": 709,
            "classifyName": "string",
            "drawingId": 5,
            "drawingName": "小黄人",
            "memo": "string",
            "picSize": 0,
            "ppid": 0,
            "projName": "小黄人",
            "size": 0,
            "uploadTime": "2017-12-07T01:31:12.654Z",
            "uploadUser": "string"
        },{
            "checkPtSize": 0,
            "classifyId": 710,
            "classifyName": "string",
            "drawingId": 6,
            "drawingName": "小小小小小",
            "memo": "string",
            "picSize": 0,
            "ppid": 0,
            "projName": "小小小小小",
            "size": 0,
            "uploadTime": "2017-12-07T01:31:12.654Z",
            "uploadUser": "string"
        }
    ],
    "first": true,
    "last": true,
    "number": 0,
    "numberOfElements": 0,
    "size": 0,
    "sort": {},
    "totalElements": 10,
    "totalPages": 10
}
