{
    "code": 200,
    "msg": "success",
    "result": {
        "content": [{
            "projId": "82",
            "ppid": 83,
            "projName": "35353535",
            "projType": 3,
            "projGenre": "-",
            "version": 1,
            "createUserName": null,
            "createRealName": null,
            "createDate": 1512034497000,
            "drawSize": 0,
            "deptId": "d68ceeb2d02043bd9ea5991ac44d649b",
            "deptName": "名称d68ceeb2d02043bd9ea5991ac44d649b",
            "projSize": 0,
            "zjCount": 0,
            "status": 2,
            "projGUID": "79CCEFAC-F26E-4FEA-A8D6-A29ED69A7F25",
            "projMemo": "35",
            "projClassify": 3
        }, {
            "projId": "81",
            "ppid": 82,
            "projName": "121",
            "projType": 2,
            "projGenre": "-",
            "version": 1,
            "createUserName": null,
            "createRealName": null,
            "createDate": 1512021380000,
            "drawSize": 0,
            "deptId": "d68ceeb2d02043bd9ea5991ac44d649b",
            "deptName": "名称d68ceeb2d02043bd9ea5991ac44d649b",
            "projSize": 0,
            "zjCount": 0,
            "status": 4,
            "projGUID": "CD7FBF94-9380-4FDF-AC74-7B16B1E2C04C",
            "projMemo": "12",
            "projClassify": 2
        }, {
            "projId": "80",
            "ppid": 81,
            "projName": "单品002",
            "projType": 3,
            "projGenre": "-",
            "version": 1,
            "createUserName": null,
            "createRealName": null,
            "createDate": 1512021367000,
            "drawSize": 0,
            "deptId": "d68ceeb2d02043bd9ea5991ac44d649b",
            "deptName": "名称d68ceeb2d02043bd9ea5991ac44d649b",
            "projSize": 0,
            "zjCount": 0,
            "status": 4,
            "projGUID": "A66D7093-0F9F-43F9-9EAF-28FBDB10DC9A",
            "projMemo": "单品002",
            "projClassify": 2
        }, {
            "projId": "79",
            "ppid": 80,
            "projName": "单品001",
            "projType": 4,
            "projGenre": "-",
            "version": 1,
            "createUserName": null,
            "createRealName": null,
            "createDate": 1512021354000,
            "drawSize": 0,
            "deptId": "d68ceeb2d02043bd9ea5991ac44d649b",
            "deptName": "名称d68ceeb2d02043bd9ea5991ac44d649b",
            "projSize": 0,
            "zjCount": 0,
            "status": 4,
            "projGUID": "88C00C09-1A10-4712-BDE9-AB3374604A9A",
            "projMemo": "单品001",
            "projClassify": 3
        }, {
            "projId": "78",
            "ppid": 79,
            "projName": "家装003",
            "projType": 5,
            "projGenre": "-",
            "version": 1,
            "createUserName": null,
            "createRealName": null,
            "createDate": 1512021262000,
            "drawSize": 0,
            "deptId": "d68ceeb2d02043bd9ea5991ac44d649b",
            "deptName": "名称d68ceeb2d02043bd9ea5991ac44d649b",
            "projSize": 0,
            "zjCount": 0,
            "status": 4,
            "projGUID": "AB93A3C9-0747-46D9-BA4D-D3FDFEA906F5",
            "projMemo": "333",
            "projClassify": 2
        }, {
            "projId": "69",
            "ppid": 70,
            "projName": "删除元素004",
            "projType": 7,
            "projGenre": "-",
            "version": 1,
            "createUserName": null,
            "createRealName": null,
            "createDate": 1511942819000,
            "drawSize": 0,
            "deptId": "d68ceeb2d02043bd9ea5991ac44d649b",
            "deptName": "名称d68ceeb2d02043bd9ea5991ac44d649b",
            "projSize": 0,
            "zjCount": 0,
            "status": 4,
            "projGUID": "45112CBA-3338-450F-88A1-CA2ECB0E01E9",
            "projMemo": "",
            "projClassify": 2
        }, {
            "projId": "68",
            "ppid": 69,
            "projName": "删除元素003",
            "projType": 8,
            "projGenre": "-",
            "version": 1,
            "createUserName": null,
            "createRealName": null,
            "createDate": 1511942808000,
            "drawSize": 0,
            "deptId": "d68ceeb2d02043bd9ea5991ac44d649b",
            "deptName": "名称d68ceeb2d02043bd9ea5991ac44d649b",
            "projSize": 0,
            "zjCount": 0,
            "status": 1,
            "projGUID": "BC22D422-4EAA-4809-A82A-7914E582A985",
            "projMemo": "",
            "projClassify": 3
        }, {
            "projId": "67",
            "ppid": 68,
            "projName": "删除元素002",
            "projType": 9,
            "projGenre": "-",
            "version": 1,
            "createUserName": null,
            "createRealName": null,
            "createDate": 1511942797000,
            "drawSize": 0,
            "deptId": "d68ceeb2d02043bd9ea5991ac44d649b",
            "deptName": "名称d68ceeb2d02043bd9ea5991ac44d649b",
            "projSize": 0,
            "zjCount": 0,
            "status": 1,
            "projGUID": "75D9A4BF-DB99-4000-8944-890F73607BE4",
            "projMemo": "",
            "projClassify": 2
        }, {
            "projId": "66",
            "ppid": 67,
            "projName": "删除元素001",
            "projType": 10,
            "projGenre": "-",
            "version": 10,
            "createUserName": null,
            "createRealName": null,
            "createDate": 1511942785000,
            "drawSize": 0,
            "deptId": "d68ceeb2d02043bd9ea5991ac44d649b",
            "deptName": "名称d68ceeb2d02043bd9ea5991ac44d649b",
            "projSize": 0,
            "zjCount": 0,
            "status": 1,
            "projGUID": "9ACE62D3-A399-44D9-B855-57DE89135328",
            "projMemo": "",
            "projClassify": 2
        }, {
            "projId": "65",
            "ppid": 66,
            "projName": "675757",
            "projType": 6,
            "projGenre": "-",
            "version": 1,
            "createUserName": null,
            "createRealName": null,
            "createDate": 1511940349000,
            "drawSize": 0,
            "deptId": "d68ceeb2d02043bd9ea5991ac44d649b",
            "deptName": "名称d68ceeb2d02043bd9ea5991ac44d649b",
            "projSize": 0,
            "zjCount": 0,
            "status": 1,
            "projGUID": "A9373F41-A199-4A15-900E-16477905851F",
            "projMemo": "",
            "projClassify": 3
        }],
        "totalPages": 3,
        "totalElements": 26,
        "last": false,
        "size": 10,
        "number": 0,
        "sort": [{
            "direction": "DESC",
            "property": "t1.createDate",
            "ignoreCase": true,
            "nullHandling": "NATIVE",
            "ascending": false,
            "descending": true
        }],
        "first": true,
        "numberOfElements": 10
    }
}
