{
    "content": [
        {
            "createDate": "2017-12-06T01:11:04.896Z",
            "createRealname": "yhj",
            "createUsername": "杨会杰",
            "deptId": "77d7de9d10b604bb698915762b0de529d",
            "deptName": "string",
            "workSetId": 11,
            "workSetName": "谁偷了奶酪"
        }, {
            "createDate": "2017-12-06T01:11:04.896Z",
            "createRealname": "yhj",
            "createUsername": "杨会杰",
            "deptId": "77d7de9d10b604bb698915762b0de529d",
            "deptName": "string",
            "workSetId": 11,
            "workSetName": "谁偷了奶酪"
        }, {
            "createDate": "2017-12-06T01:11:04.896Z",
            "createRealname": "yhj",
            "createUsername": "杨会杰",
            "deptId": "77d7de9d10b604bb698915762b0de529d",
            "deptName": "string",
            "workSetId": 11,
            "workSetName": "谁偷了奶酪"
        }, {
            "createDate": "2017-12-06T01:11:04.896Z",
            "createRealname": "yhj",
            "createUsername": "杨会杰",
            "deptId": "77d7de9d10b604bb698915762b0de529d",
            "deptName": "string",
            "workSetId": 11,
            "workSetName": "谁偷了奶酪"
        }, {
            "createDate": "2017-12-06T01:11:04.896Z",
            "createRealname": "yhj",
            "createUsername": "杨会杰",
            "deptId": "77d7de9d10b604bb698915762b0de529d",
            "deptName": "string",
            "workSetId": 11,
            "workSetName": "谁偷了奶酪"
        }, {
            "createDate": "2017-12-06T01:11:04.896Z",
            "createRealname": "yhj",
            "createUsername": "杨会杰",
            "deptId": "77d7de9d10b604bb698915762b0de529d",
            "deptName": "string",
            "workSetId": 11,
            "workSetName": "谁偷了奶酪"
        }, {
            "createDate": "2017-12-06T01:11:04.896Z",
            "createRealname": "yhj",
            "createUsername": "杨会杰",
            "deptId": "77d7de9d10b604bb698915762b0de529d",
            "deptName": "string",
            "workSetId": 11,
            "workSetName": "谁偷了奶酪"
        }, {
            "createDate": "2017-12-06T01:11:04.896Z",
            "createRealname": "yhj",
            "createUsername": "杨会杰",
            "deptId": "77d7de9d10b604bb698915762b0de529d",
            "deptName": "string",
            "workSetId": 11,
            "workSetName": "谁偷了奶酪"
        }, {
            "createDate": "2017-12-06T01:11:04.896Z",
            "createRealname": "yhj",
            "createUsername": "杨会杰",
            "deptId": "77d7de9d10b604bb698915762b0de529d",
            "deptName": "string",
            "workSetId": 11,
            "workSetName": "谁偷了奶酪"
        }, {
            "createDate": "2017-12-06T01:11:04.896Z",
            "createRealname": "yhj",
            "createUsername": "杨会杰",
            "deptId": "77d7de9d10b604bb698915762b0de529d",
            "deptName": "string",
            "workSetId": 11,
            "workSetName": "谁偷了奶酪"
        }, {
            "createDate": "2017-12-06T01:11:04.896Z",
            "createRealname": "yhj",
            "createUsername": "杨会杰",
            "deptId": "77d7de9d10b604bb698915762b0de529d",
            "deptName": "string",
            "workSetId": 11,
            "workSetName": "谁偷了奶酪"
        }, {
            "createDate": "2017-12-06T01:11:04.896Z",
            "createRealname": "yhj",
            "createUsername": "杨会杰",
            "deptId": "77d7de9d10b604bb698915762b0de529d",
            "deptName": "string",
            "workSetId": 11,
            "workSetName": "谁偷了奶酪"
        }
    ],
    "first": true,
    "last": true,
    "number": 0,
    "numberOfElements": 0,
    "size": 10,
    "sort": {},
    "totalElements": 100,
    "totalPages": 10
}
